<svg viewBox="0 0 300 300" fill="none" xmlns="http://www.w3.org/2000/svg">
    <rect width="300" height="300" fill="black"/>
    <path d="M150 25L258.253 87.5V212.5L150 275L41.7468 212.5V87.5L150 25Z" fill="#2F8274"/>
    <circle cx="25" cy="25" r="25" transform="matrix(-1 0 0 1 175 125)" fill="#D9D9D9"/>
    <path d="M225 150C225 191.421 191.421 225 150 225C108.579 225 75 191.421 75 150C75 108.579 108.579 75 150 75C191.421 75 225 108.579 225 150ZM108.75 150C108.75 172.782 127.218 191.25 150 191.25C172.782 191.25 191.25 172.782 191.25 150C191.25 127.218 172.782 108.75 150 108.75C127.218 108.75 108.75 127.218 108.75 150Z"
          fill="#D9D9D9"/>
</svg>
